…
### 4.5 Examining the Rating

There are 5 columns for different counts of rating and a “rating\_count”
representing the total number of rates received. In the aim of analysis
of this project, I do not need these columns because I only need the
“rating” column which indicates the overall rating.

``` r
rate <- cloth2 %>% dplyr::select(rating, rating_count, rating_five_count, rating_four_count, rating_three_count,
                                 rating_two_count, rating_one_count)

rate
```

    ## # A tibble: 1,457 x 7
    ##    rating rating_count rating_five_count rating_four_count rating_three_count
    ##     <dbl>        <dbl>             <dbl>             <dbl>              <dbl>
    ##  1   3.76           54                26                 8                 10
    ##  2   3.45         6135              2269              1027               1118
    ##  3   3.57           14                 5                 4                  2
    ##  4   4.03          579               295               119                 87
    ##  5   3.1            20                 6                 4                  2
    ##  6   5               1                 1                 0                  0
    ##  7   3.84         6742              3172              1352                971
    ##  8   3.76          286               120                56                 61
    ##  9   3.47           15                 6                 2                  3
    ## 10   3.6           687               287               128                 92
    ## # ... with 1,447 more rows, and 2 more variables: rating_two_count <dbl>,
    ## #   rating_one_count <dbl>
…
